<?xml version="1.0" encoding="UTF-8" standalone="no"?>
<!-- Created with Inkscape (http://www.inkscape.org/) -->

<svg
   xmlns:dc="http://purl.org/dc/elements/1.1/"
   xmlns:cc="http://creativecommons.org/ns#"
   xmlns:rdf="http://www.w3.org/1999/02/22-rdf-syntax-ns#"
   xmlns:svg="http://www.w3.org/2000/svg"
   xmlns="http://www.w3.org/2000/svg"
   xmlns:xlink="http://www.w3.org/1999/xlink"
   xmlns:sodipodi="http://sodipodi.sourceforge.net/DTD/sodipodi-0.dtd"
   xmlns:inkscape="http://www.inkscape.org/namespaces/inkscape"
   width="640"
   height="460"
   id="svg3507"
   version="1.1"
   inkscape:version="0.48.4 r9939"
   sodipodi:docname="start.svg"
   inkscape:export-filename="D:\Programmation\Javascript\7DRTS\0_0_6\assets\gfx\start.png"
   inkscape:export-xdpi="90"
   inkscape:export-ydpi="90">
  <defs
     id="defs3509">
    <linearGradient
       id="linearGradient4356">
      <stop
         style="stop-color:#c8f2f3;stop-opacity:1;"
         offset="0"
         id="stop4358" />
      <stop
         id="stop4589"
         offset="0.46226007"
         style="stop-color:#000000;stop-opacity:1;" />
      <stop
         style="stop-color:#ffffff;stop-opacity:1;"
         offset="1"
         id="stop4360" />
    </linearGradient>
    <linearGradient
       inkscape:collect="always"
       xlink:href="#linearGradient4356"
       id="linearGradient4362"
       x1="103"
       y1="803.04553"
       x2="103"
       y2="810.79388"
       gradientUnits="userSpaceOnUse" />
  </defs>
  <sodipodi:namedview
     id="base"
     pagecolor="#ffffff"
     bordercolor="#666666"
     borderopacity="1.0"
     inkscape:pageopacity="0.0"
     inkscape:pageshadow="2"
     inkscape:zoom="1"
     inkscape:cx="222.64097"
     inkscape:cy="151.71047"
     inkscape:document-units="px"
     inkscape:current-layer="layer1"
     showgrid="false"
     inkscape:window-width="1600"
     inkscape:window-height="837"
     inkscape:window-x="-8"
     inkscape:window-y="-8"
     inkscape:window-maximized="1"
     showguides="true"
     inkscape:guide-bbox="true" />
  <metadata
     id="metadata3512">
    <rdf:RDF>
      <cc:Work
         rdf:about="">
        <dc:format>image/svg+xml</dc:format>
        <dc:type
           rdf:resource="http://purl.org/dc/dcmitype/StillImage" />
        <dc:title></dc:title>
      </cc:Work>
    </rdf:RDF>
  </metadata>
  <g
     inkscape:label="Calque 1"
     inkscape:groupmode="layer"
     id="layer1"
     transform="translate(0,-592.36218)">
    <rect
       style="fill:url(#linearGradient4362);fill-opacity:1;stroke:none"
       id="rect4354"
       width="640"
       height="460"
       x="0"
       y="592.36218" />
    <text
       xml:space="preserve"
       style="font-size:30.41783714px;font-style:normal;font-weight:normal;line-height:125%;letter-spacing:0px;word-spacing:0px;fill:#000000;fill-opacity:1;stroke:none;font-family:Sans"
       x="19.651196"
       y="731.28198"
       id="text3531"
       sodipodi:linespacing="125%"><tspan
         sodipodi:role="line"
         id="tspan3533"
         x="19.651196"
         y="731.28198"
         style="font-size:87.24909973px;font-style:normal;font-variant:normal;font-weight:normal;font-stretch:normal;font-family:Governor;-inkscape-font-specification:Governor">AGe OF RICE </tspan></text>
    <text
       xml:space="preserve"
       style="font-size:43.53647614px;font-style:normal;font-weight:normal;line-height:125%;letter-spacing:0px;word-spacing:0px;fill:#000000;fill-opacity:1;stroke:none;font-family:Sans"
       x="202.91708"
       y="905.31836"
       id="text3551"
       sodipodi:linespacing="125%"><tspan
         sodipodi:role="line"
         id="tspan3553"
         x="202.91708"
         y="905.31836"
         style="font-style:normal;font-variant:normal;font-weight:normal;font-stretch:normal;font-family:Governor;-inkscape-font-specification:Governor">Play</tspan></text>
    <text
       xml:space="preserve"
       style="font-size:42.44044113px;font-style:normal;font-weight:normal;line-height:125%;letter-spacing:0px;word-spacing:0px;fill:#000000;fill-opacity:1;stroke:none;font-family:Sans"
       x="203.70537"
       y="955.02283"
       id="text3551-1"
       sodipodi:linespacing="125%"><tspan
         sodipodi:role="line"
         id="tspan3553-3"
         x="203.70537"
         y="955.02283"
         style="font-style:normal;font-variant:normal;font-weight:normal;font-stretch:normal;font-family:Governor;-inkscape-font-specification:Governor">Instructions</tspan></text>
    <text
       xml:space="preserve"
       style="font-size:40px;font-style:normal;font-weight:normal;line-height:125%;letter-spacing:0px;word-spacing:0px;fill:#808080;fill-opacity:1;stroke:none;font-family:Sans"
       x="206.32373"
       y="1042.1532"
       id="text5099"
       sodipodi:linespacing="125%"><tspan
         sodipodi:role="line"
         id="tspan5101"
         x="206.32373"
         y="1042.1532"
         style="font-size:20px;fill:#808080;fill-opacity:1">7dRTS #miniLD44 - Pif</tspan></text>
  </g>
</svg>
