<?xml version="1.0" encoding="UTF-8" standalone="no"?>
<!-- Created with Inkscape (http://www.inkscape.org/) -->

<svg
   xmlns:dc="http://purl.org/dc/elements/1.1/"
   xmlns:cc="http://creativecommons.org/ns#"
   xmlns:rdf="http://www.w3.org/1999/02/22-rdf-syntax-ns#"
   xmlns:svg="http://www.w3.org/2000/svg"
   xmlns="http://www.w3.org/2000/svg"
   xmlns:xlink="http://www.w3.org/1999/xlink"
   xmlns:sodipodi="http://sodipodi.sourceforge.net/DTD/sodipodi-0.dtd"
   xmlns:inkscape="http://www.inkscape.org/namespaces/inkscape"
   width="100"
   height="100"
   id="svg2"
   version="1.1"
   inkscape:version="0.48.4 r9939"
   sodipodi:docname="bank.svg"
   inkscape:export-filename="D:\Programmation\Javascript\7DRTS\0_0_3\assets\gfx\bank.png"
   inkscape:export-xdpi="90"
   inkscape:export-ydpi="90">
  <defs
     id="defs4">
    <pattern
       inkscape:collect="always"
       xlink:href="#pattern4818"
       id="pattern4821"
       patternTransform="translate(143.81731,946.50934)" />
    <pattern
       inkscape:collect="always"
       xlink:href="#pattern4720"
       id="pattern4818"
       patternTransform="translate(143.81731,946.50934)" />
    <pattern
       inkscape:collect="always"
       xlink:href="#pattern4683"
       id="pattern4688"
       patternTransform="matrix(0.22655023,0,0,0.22655023,-1.5136717e-7,1.4746094e-5)" />
    <pattern
       inkscape:collect="always"
       xlink:href="#pattern3962"
       id="pattern4683"
       patternTransform="matrix(0.22655023,0,0,0.22655023,149.99028,895.10115)" />
    <pattern
       patternUnits="userSpaceOnUse"
       width="167.17249"
       height="95.78862"
       patternTransform="translate(205.04359,858.73566)"
       id="pattern3962">
      <image
         y="1.1368684e-013"
         x="0"
         id="image3942"
         xlink:href="data:image/png;base64,iVBORw0KGgoAAAANSUhEUgAAAiQAAAE6CAIAAACppd5RAAAAA3NCSVQICAjb4U/gAAAQlklEQVR4 nO3dQZajuLYFUMdfMZmq6USPAbrn8dR0fsP5SAIDlkESumLvxlv5spw2BqGjK2T4ut/vN4C2DcOg swrt/87eAIIZhmH83+kfADYIG/Z4jjFnwQOwRtjwmdepDJMbwFvChv3EDNVobNEJGwCKEzYAFCds gHYNw2AFSh+EDYeYSQdSCBsAihM2QAzm00ITNuxhJh34iLABGjUb0LhAGNr32RsAsEy69ERlw1Hm 04C3VDZAu8ykdUNlw8ec/8CnvvQUQMvGx6Z5flpoKhsAilPZsIeZNOoYW5o2Fp3KBmjXNGOsewxN 2LDHswu43+/Gm1SjsYUmbAAozjUb9jCTTjXT2TPtLS6VDXuYSacyMROdsOEovQClaWMdcLsaoGn3 +1313AGVDYd4sA2QQthwiPkNIIWwYT9JQ2mWonXD0mf2swCaOrS0DqhsgBgkTWjCBoDihA17mEmn PuseQxM27OEOAsBHhA1HqWyAt4QNEMBsTKOeDkfYcJTTnvrU0+EIGyAGAROasAECUEBHJ2w4xEw6 1WhdoQkbcjLRASwSNhwlYIC3hA2HmNmgGsOa0IQNR8kbihobmJYWmrABWPB4PM7ehK7kCRsjDt7y AGn2ud/vp0yg/fz81P/Qjn1neRdzqVeWePQ1EriyqzypcxiGi3zTajxloKbn3rafqek5kZirwqsU Nh/Nn6Rs0jM8Zm/7+g/rz9tMt6rvrmEtbFJyPT37p6+MNWJYbHtHtl+6E9pXlnd57fe3//6yPt0h zz4lpds6a+T7+rmvWztNi8S33fji+3z0AJ4dG9y+LI8gEnLs9nFlM44up394fdnuAX7KabD2hrNN em7Dxv1U3nb9O06tPrqn9C+eEja7N+C1cu1j93bmeDanl7kl3nyju2hWoE19Goah7DRa+3sk+9TE 9ldOqT9eU3x2Mi+e22+7+4966oOzPbPhyGyrUgYieQu12aRrYu+zewM2Nn5x9LO2lxZf9nb8tL1V i7aHZeOu23EfvCM5NPvc/sYZGQdP6cd9rRV9aseW5w+biFcy2w/FC8p7cfL5hhazNr4TssT86z/f DtrbpNeavUPQhNud8eXuq3u/34tUNvru7l1kEQTt+KjJLZbRo9dSsk6FPdu26cYcrPXXZkFuS1/2 iCO74ipLnwMJEdUR61dC+3R8k3gerb0s9HBqx9WBtRzK+PWFzVEhsgFIFzRptmu4xH8+m1fMt3XC 5pjs1xVKa3zKHkaq50+9/d3hufLcruaywnXc4TYYSNRausyobAAoziMGAChO2AAxBP3VS4ooX+3I dgobgJNtL7/ug2s27GGlEBTV328qVDYAexStPDpLmpuwYbf+Tgb4iFPgI8KGPZxmlBb9ikX07c9O 2AAtSn8SRJui/ID6eRuUCiwQ4Kj+rmQC2QkboC3WOnZJ2ABQnGs27NT4jDkdGIZBM+uGyoZDzHhQ yMGns9AalQ2HOP8p5Nm07vf766OOiUjYsFPQpxkSyNi0tLEOeHgaexhjUpm8iU5lwx5mNoCPCBv2 kzRAImEDNMFC5765ZgM0wVWZvqlsAChOZQM0xJL6Xqls2ElfAKRT2QANMYjplcqGo6wgIhdtqWPC hgz0EWShrOmYsCEDfQTZ+dlNZ4QNR0ka4C1hA7Ro+nCBNUqfQIQN+6lpOJcWGIiwYT/jSiCRsAGg OGEDNEfR3B9hA0BxwgZojiv//RE2QFvMoXVJ2ABtUdZ0SdgAUJywAaA4YQM0xAWbXgkboC3u99wl T+oEGmJ1QK9UNgAUJ2wAKE7YAFCcsAGgOGEDQHHChp0sTgXSCRsAihM27OT3EEA6YcNOptGAdO4g wGdmGaO+AVIIGz4zpovKBkhnGo39lDVAImHDfoobCtG0+iNs2Ml8GpBO2HCIpAFSCBugOS4H9kfY sJOaBkgnbDjKIBR4S9gAUJyw4SjzacBbwoadzJ4B6YQNR0kd4C1hA0BxwgaA4oQNR1kgALwlbNhJ xgDphA1HWSAAvCVs2EnGAOmEDUeZTwPeEjZAWwxfuiRsOMp8Ghk9k0be9EfYAA0xdunVl0PLbuPw UysCtqlsAChO2ABQnLABKnk8HulX/q0R6Mz32RsAXMXPz8/Pz8/ZW8E5VDYAFCdsgBY9lzgOw7Ax n2aqLRDTaEC7tlfVW3MfiMqGo5zwwFvChkMkDZBC2AAhuWATy59rNo/H43a7WZWY4rmvbnYXnEpV Hcv3bTJA0HummO6lYRgu3uLtASDF1/1+f4aNLgMo6vF4pI9o9Uud+R7LGkPUg3acG6+Tzmv/fHp/ 5emRqn9CaiflfNQXR/Tff/8lvvL11JA90X0lvi7EMV7sB+tfRXy7r5q9sDmWubdJqm1s7SzzXv/+ 9r+DsvGCpsyakGconCKlyRHO11p/AWvGn3bffudTiU85lzKustd0l/fpGi/+kh6eFi6HUnrAlJmo sa8JtweY2nf6RUmaaeqvNePnH0J8nVdRDsTpegibZhVdhTw9chmb+2yeavz7lCmp1zehguOHfjsP NmYa1w50zTFQ6C6CdsQOm3IaHyPcIg/3ZgPtsastNyOX3e7LcosXhPqQdzQWtG1nsa8SrdAhHDw0 wmZB9GmHK9txyi0uClhbJrBdjL69Arr9gn1xOyu+UyaQz8q54x9d9JTcOPEXj/vif11U59L427Ws t/WaePZv963R2Dh3bsJmkbDhI9uX/ab/N33N+lqAnbjq/dXpxdkVLqkufsfX30duDLNK7J+307yv /0nYLGvhTKYbs6Fl3CnQj7x+zeOn1eJ7zpZHLv75aaMK3Bjab4/6U+ZUMx7uQo0n5Td/s7nuj9Zh 3YTNGmFDLtpS3yoc3xKLldZ+Uva0/RHbL17LaWGz6iLDT7iOoMF/ZLOL9mMfvblHDCzrexaYc2ld eX20P8Mlze12u9/vu5Mm+8ZMfbRVHgs9pyOAWNK7vIhJc0RT31dlM7d7EAEzKb+24ZqqDWrbGT0L G4Da6gw42kmam7CBcmr+7oFrCtSWhM2CQMePcKxyJKO3bamdxiZsVrVzkOhJoFvAEV1TnZiwgUpk DFcmbAD61NT4xu9sFjRVewJ0QGWzahiGpsYFdOMK9yqmBU2Nm4UNFPRMlMWBS1MdAZRmGm2Bxank 8mxImhO46/Oy7QfzAfAR02gAFGcabYuahlyCPkkFclHZQA1ihosTNn9Zikpp4+K0szeES2iqpQmb v8axZ1NHiP6ocqijqZYmbKCS2XP5jGk4LlArEjYLmhoO0LFAPQXNitKKrEaD2sbewbCGgwI1IZUN AMUJG6hkdluKQGNSOE7YQCXShYyiXKoZCRuAeMI9X1zYQG1KHC5I2EBVsUajtCzWqEXYQD1uV8Nl CZtVsUYNAC0TNqsMP8nOgzu5LGEDVUkarknYAFCcsIH8zMHSmtPbpLAB6NzpSXO73b7MIC9yX16A jFQ2ABQnbKC2FuY06F5rzUzYQFWtdQFQh7BZoDsAomvterOwgfw2xisem8Y1CRvIT5zAjLCZe45J 7/9z9uYQWPp87PjKx+NRbHPgTMIGSkkfrIyv/Pn5KbY5XN0wDCdekP4+64NbpqAB+nNuz6ay+cU6 NIAShA2cw8iGSxE2v5hAoxqNjUtxI04AilPZ/GJmA6AEYbNM6lCUBsZxsVqRsPnFpCIQRaz+SthA bcMwxOom4DhhsypWiUogkoYLEjbL3BiNcjbGMe6NRq+EDTTEvdHolbBZde5N6wB6ImzekDcAxwmb N1y5ITuNigsSNgAUJ2wAKE7YQFUWnnBNwgbqETNclrCBeiwN4LK+z94AuBZ5wzWpbAAoTthAJcP/ nL0hXEVTjU3YQG1NdQFQh2s2y3QHQHSzC4Rjt3bKhUOVDdRw7nkO4yP7zmqBX5r+mmfvYP+QhebE xalsoIbxcXxmaLkmYbNs7BF0DWTxbEiaEzU11d6EDVRiBMOVCZst49QHHKQhcXHCZosRKBnJG65M 2EAN04GL1OGChM2C54J0PQJ5jT90UDFTR1OdmN/ZvDF2EACxNNV9qWy2GIECQbXWfbk32rLWjhPd aGqwScdaa2YqmzdaO2AAEblms8BtrChBTcOVqWyW6RQoxAwt1yRsFkgaoANNjWyEDVRy7tNEuKbS eZP+/sIGoFulBzfp7y9s3hiGoXIp+ng8Ho9HzU+kjrEtNTW5QZfqd1xv/fmdzdpmbadWxlVbLTw0 d7oNsx1SbR3R+LmPx8N8S68cWYpqoTt9tbD0eYyQ1oLxuJQvdeTuVQcP7ayJWIHdGUufqaDZfmP1 dzbTLV7secd/2F8mZdTgIV80HWGcu83Tu1V+uiVtDuiA2xg2p3cxG7Yrrd2FSP3777a5h2fjoMVB Rs0tz35EFjd+9inT17R8LkBcAcKmTc89lrdnTOkWF1+8dvjelqfpGzZ+30LtJH3z0oNw+zWznTON 2+0DsaPecnKBsCnrdcdu96ohJieL5s3aRcTZRxequpqd74bohE1vXrvmtSmjt0P4txLbTPpDKrfb 4eKEanq7ff1e28G24yMSP3fxI54v+/fff//555/0N//5+dm/ZU16PB79fSluwoZPpZcUHxVn0zm6 19m/7ZnA7Tbcco2YRTdnbumpWs4lbMhjY8Jwdnnptj5buFZ17S5K1t78trLkpM6K/xN/VzD96O09 nP1zP/2gHV3T1fqxWLO+wobzpZwzG+vHNl4Zt1WnnJKv+6TLMq79g/ia3+k9avqBPn58F4cXH43b PtqG2YuFDRmkrObK9UG3CL0P6dKHEdtvktJpplwyTP9Z4fji+r+jyKLyZn9NP885zD5Z+guuI2VB /8E32V7EuP33b20X1h+97eJP3Db++VpCrE1Wv13zsmP+ee2Va1dbn4QNOSmRL26twtgIgN0fdFvv YVP+7aebkdLVrv3XHR1soT55beq1wmkrbKBDZ6V++jA5y6ccebfZhZCP1vGvrS7ZvTE1nTUPIWzI YLZoVX3DrfzVuxPbWB+LUCr7eyNOecNui/PU2lIJgYI80KZSwffZG0APXvsUvUwJsbrvxjfVqKgy T+okM6duOfZtCeGWLAf1J2zsbnjLadKT+/3+DG8RXofKBlLplVIMwxAolR3TaoQNkNNYMcQSKCCD svQZgOL+VDZiBogi1kwdT6bRACjuz+9sDBM4zmQsdWhjEZlGA6A4v7MBoDjXbCjC8AWYMo3G+R6P x9mbAJRlGo08jjwk4+fnJ/fmAG1x12fyUBwDG0yjAVCcyoZsznrcLNfht1xxuWYDQHGWPpPN+HQQ A09gxjUbIAw9VVy/KhuTaRzxbD9m1YFXv67Z6CA4Ytp+DFwo5H6/e8RARKbRKEKLohytKyLTaEAY Yx8lb8Kx9Jn8zHIAM39+1GmYQEbPWfWztwJoyPxJnVKHgzQhytG64rJAgJysFAIW/V0gIG8AKMTt agAo7u9qNFMfHDRtQgplYOrvNRu9Awe5gwCw5u802jAM8oZctCVgygIBAIqzQIAiTKMBU7+m0U7c DgA65kacABRnGo38Ztf/DGIAYUNx1p5w3GzI4qeB4XyfvQH0ScBQlAYWjsqG/Aw5gRkPT6MILYqi TKOF43Y1QABuhhSdazZAJM+kMTgO52/YGCyQkb6AQjStoNwbjZzGIYuxCyVoV3FZjQZAccKGnKw0 oSitK65fYeNAAlDCl4ABoDTTaAAU9/+lXBsbPP+KngAAAABJRU5ErkJggg== "
         height="95.78862"
         width="167.17249" />
    </pattern>
    <pattern
       patternUnits="userSpaceOnUse"
       width="37.872971"
       height="21.700935"
       patternTransform="translate(149.99028,895.10114)"
       id="pattern4685">
      <rect
         id="rect3965"
         y="1.1368684e-013"
         x="0"
         height="21.700935"
         width="37.872971"
         style="fill:url(#pattern4688);stroke:none" />
    </pattern>
    <pattern
       patternUnits="userSpaceOnUse"
       width="50.862698"
       height="28.868017"
       patternTransform="translate(143.81731,946.50934)"
       id="pattern4720">
      <image
         y="1.1368684e-013"
         x="0"
         id="image4700"
         xlink:href="data:image/png;base64,iVBORw0KGgoAAAANSUhEUgAAAEoAAAAqCAIAAACbRlp8AAAAA3NCSVQICAjb4U/gAAABzUlEQVRo ge1ZwbGEIAxFZ1twxhagHVqyFm80YRHQgRea+IfMz/jx60YSFHb2HXZ2XDbyQkheoJvnWckhhKC1 FjSolHLOWWvz/tvLTsV7L2uQCWF6teFL7yKcc+I2s/GSNWeMEU8tHLyynW2MgS/AJ7GT5BhjjPce Pk8Mwq/W2q01fFEGOkphgHQfYxyGgW5aZHwIATmHEJRSWuu3S4KeItGjo0Td46CBusfJVQ0UhmzJ osTpcdLAEWDL5UGYXomNx7HZQHByIEyPE0gl0EDm5KCB1MLBd/VaRh9jJA6ljKwtOLutJkikegIc OU2T1toY45y7WpS2r1uWBTT01ZCm6xhhSU3HW/GdDHDOJaFx7hRoGuqlJwJqapGt19jFlQb1MELW 07f1hI8VhnsYPhacgtZOzJLo1SaUj7CPCBI9rbX43rvHZc8Ep6pt74nn8bpWTxz31L3H6N0jvvsQ QhIn+7ChPLmKEqu3n9UfzXnULoBC3yopvDOAHIjP4aj83wsGnME+qWAHwL9dSkx11lrOOekeUloZ lyKpInjloH7bCHQxNHTgTRggT68E0GVXfdfG9SXG9tW4+PSzltpOR2Tx6as3juPTc3iDdV2z//sD /Z8GqBI9sV0AAAAASUVORK5CYII= "
         height="28.868017"
         width="50.862698" />
    </pattern>
    <filter
       inkscape:collect="always"
       id="filter4822"
       x="-0.12128558"
       width="1.2425712"
       y="-0.11874139"
       height="1.2374828">
      <feGaussianBlur
         inkscape:collect="always"
         stdDeviation="2.4743325"
         id="feGaussianBlur4824" />
    </filter>
    <pattern
       patternUnits="userSpaceOnUse"
       width="50.862698"
       height="28.868017"
       patternTransform="translate(143.81731,946.50934)"
       id="pattern4720-5">
      <image
         y="1.1368684e-013"
         x="0"
         id="image4700-1"
         xlink:href="data:image/png;base64,iVBORw0KGgoAAAANSUhEUgAAAEoAAAAqCAIAAACbRlp8AAAAA3NCSVQICAjb4U/gAAABzUlEQVRo ge1ZwbGEIAxFZ1twxhagHVqyFm80YRHQgRea+IfMz/jx60YSFHb2HXZ2XDbyQkheoJvnWckhhKC1 FjSolHLOWWvz/tvLTsV7L2uQCWF6teFL7yKcc+I2s/GSNWeMEU8tHLyynW2MgS/AJ7GT5BhjjPce Pk8Mwq/W2q01fFEGOkphgHQfYxyGgW5aZHwIATmHEJRSWuu3S4KeItGjo0Td46CBusfJVQ0UhmzJ osTpcdLAEWDL5UGYXomNx7HZQHByIEyPE0gl0EDm5KCB1MLBd/VaRh9jJA6ljKwtOLutJkikegIc OU2T1toY45y7WpS2r1uWBTT01ZCm6xhhSU3HW/GdDHDOJaFx7hRoGuqlJwJqapGt19jFlQb1MELW 07f1hI8VhnsYPhacgtZOzJLo1SaUj7CPCBI9rbX43rvHZc8Ep6pt74nn8bpWTxz31L3H6N0jvvsQ QhIn+7ChPLmKEqu3n9UfzXnULoBC3yopvDOAHIjP4aj83wsGnME+qWAHwL9dSkx11lrOOekeUloZ lyKpInjloH7bCHQxNHTgTRggT68E0GVXfdfG9SXG9tW4+PSzltpOR2Tx6as3juPTc3iDdV2z//sD /Z8GqBI9sV0AAAAASUVORK5CYII= "
         height="28.868017"
         width="50.862698" />
    </pattern>
    <pattern
       patternUnits="userSpaceOnUse"
       width="11.900185"
       height="20.966991"
       patternTransform="translate(117.23937,1004.9323)"
       id="pattern4737">
      <image
         y="1.1368684e-013"
         x="0"
         id="image4717"
         xlink:href="data:image/png;base64,iVBORw0KGgoAAAANSUhEUgAAACoAAABKCAIAAABCVVFWAAAAA3NCSVQICAjb4U/gAAABeUlEQVRo ge1YQRLCIAysTp/Qkw/oueMH/P+t576hj/CA00GSYDAkQemOB4cCS0LIEi6P+20AWOZp3fZlnuCn BOu2h/6cnrDbyBmZh2SGq8akFehtgNOHHeVA6CSp9fyFltEL55XSdxx6J70jfcj5SaPkLFBjc9av 2378kllKl0Kdo5EihgPiluM/Uxu/sZ4JToag+jQZenycOV+D3gZk2vGk19h41KQmna8B1KPO1uM5 vyj0oFlheNwOW170SdMhtfwVUD1R0Ur0CSmyULGvhYSuj8hX1HsO/lTvT/p+6Z2fF4QooEfLHSFw xRuAXsVSET6VKlMZfTIvWmENRDnGx+/svR2980XbDE3qffXLVvd671xkcasc/sbLQ0RkvTw9OB+8 EWpGrSonzAyl8o0+szQhAmv8AAn7IDWeRug5px1u0rV5ziPplaRWy/nM5RYontldA6e3hCjnq9Bb or29P51P+KC6Y5AaL1O2VQ+L9pzvTK/6pvuZ3hJPRbC5c5wbgPwAAAAASUVORK5CYII= "
         height="20.966991"
         width="11.900185" />
    </pattern>
  </defs>
  <sodipodi:namedview
     id="base"
     pagecolor="#ffffff"
     bordercolor="#666666"
     borderopacity="1.0"
     inkscape:pageopacity="0.0"
     inkscape:pageshadow="2"
     inkscape:zoom="4"
     inkscape:cx="35.579637"
     inkscape:cy="74.403764"
     inkscape:document-units="px"
     inkscape:current-layer="layer1"
     showgrid="false"
     inkscape:window-width="1600"
     inkscape:window-height="837"
     inkscape:window-x="-8"
     inkscape:window-y="-8"
     inkscape:window-maximized="1" />
  <metadata
     id="metadata7">
    <rdf:RDF>
      <cc:Work
         rdf:about="">
        <dc:format>image/svg+xml</dc:format>
        <dc:type
           rdf:resource="http://purl.org/dc/dcmitype/StillImage" />
        <dc:title></dc:title>
      </cc:Work>
    </rdf:RDF>
  </metadata>
  <g
     inkscape:label="Calque 1"
     inkscape:groupmode="layer"
     id="layer1"
     transform="translate(0,-952.36218)">
    <path
       style="fill:url(#pattern4737);fill-opacity:1.0;stroke:#2c2c2c;stroke-opacity:1"
       d="m 65.075704,1047.3609 0,-15 c 0,-1.6727 -0.270485,-3.2847 -0.78125,-4.7812 -0.510765,-1.4966 -1.26181,-2.8776 -2.1875,-4.125 l -0.15625,0.5 -2.59375,7.5 -2.65625,-7.4688 -2.0625,-5.9062 c -1.43668,-0.4574 -2.97424,-0.7188 -4.5625,-0.7188 -1.33932,0 -2.63942,0.202 -3.875,0.5313 l -2.25,6.4687 -2.59375,7.5 -2.65625,-7.4687 -0.4375,-1.25 c -0.99508,1.2727 -1.795645,2.6987 -2.34375,4.25 -0.548105,1.5513 -0.84375,3.2279 -0.84375,4.9687 l 0,15 30,0 z"
       id="path4707"
       inkscape:connector-curvature="0" />
    <rect
       style="fill:#e3e3e3;fill-opacity:1;stroke:none"
       id="rect4788-1-2"
       width="8"
       height="18"
       x="75"
       y="992.36218" />
    <path
       style="fill:none;stroke:#000000;stroke-width:1.24092853px;stroke-linecap:butt;stroke-linejoin:miter;stroke-opacity:1"
       d="m 78.938996,992.3676 0,18.0813"
       id="path4874-9-0-8-6"
       inkscape:connector-curvature="0" />
    <rect
       style="fill:#e3e3e3;fill-opacity:0.99547511;stroke:none"
       id="rect4788-1"
       width="8"
       height="18"
       x="18"
       y="992.36218" />
    <path
       style="fill:none;stroke:#000000;stroke-width:1px;stroke-linecap:butt;stroke-linejoin:miter;stroke-opacity:1"
       d="m 18.125,996.71574 7.625,0"
       id="path4874"
       inkscape:connector-curvature="0" />
    <path
       style="fill:none;stroke:#000000;stroke-width:1px;stroke-linecap:butt;stroke-linejoin:miter;stroke-opacity:1"
       d="m 18.0625,1005.7158 7.625,0"
       id="path4874-9"
       inkscape:connector-curvature="0" />
    <path
       style="fill:none;stroke:#000000;stroke-width:1px;stroke-linecap:butt;stroke-linejoin:miter;stroke-opacity:1"
       d="m 18.0625,1001.2372 7.625,0"
       id="path4874-9-0"
       inkscape:connector-curvature="0" />
    <path
       style="fill:none;stroke:#000000;stroke-width:1.24092853px;stroke-linecap:butt;stroke-linejoin:miter;stroke-opacity:1"
       d="m 22.031824,992.3216 0,18.0812"
       id="path4874-9-0-8"
       inkscape:connector-curvature="0" />
    <path
       style="fill:none;stroke:#000000;stroke-width:1px;stroke-linecap:butt;stroke-linejoin:miter;stroke-opacity:1"
       d="m 75.032172,996.76174 7.625,0"
       id="path4874-7"
       inkscape:connector-curvature="0" />
    <path
       style="fill:none;stroke:#000000;stroke-width:1px;stroke-linecap:butt;stroke-linejoin:miter;stroke-opacity:1"
       d="m 74.969672,1001.2833 7.625,0"
       id="path4874-9-0-5"
       inkscape:connector-curvature="0" />
    <path
       style="fill:none;stroke:#000000;stroke-width:1px;stroke-linecap:butt;stroke-linejoin:miter;stroke-opacity:1"
       d="m 74.969672,1005.7619 7.625,0"
       id="path4874-9-4"
       inkscape:connector-curvature="0" />
    <path
       style="fill:url(#pattern4821);fill-opacity:1;stroke:#2c2c2c;stroke-opacity:1"
       d="M 10 15 L 10 25 L 10 95 L 35 95 L 35 80 C 35 76.518468 36.197339 73.326666 38.1875 70.78125 L 38.625 72.03125 L 41.28125 79.5 L 43.875 72 L 46.125 65.53125 C 47.360576 65.201939 48.660679 65 50 65 C 51.58826 65 53.125821 65.26133 54.5625 65.71875 L 56.625 71.625 L 59.28125 79.09375 L 61.875 71.59375 L 62.03125 71.09375 C 63.882628 73.588608 65 76.654584 65 80 L 65 95 L 90 95 L 90 25 L 90 15 L 80 15 L 80 25 L 67.5 25 L 67.5 15 L 57.5 15 L 57.5 25 L 43.5 25 L 43.5 15 L 33.5 15 L 33.5 25 L 20 25 L 20 15 L 10 15 z M 18 40 L 26 40 L 26 58 L 18 58 L 18 40 z M 75 40 L 83 40 L 83 58 L 75 58 L 75 40 z "
       transform="translate(0,952.36218)"
       id="rect2985" />
    <path
       sodipodi:type="arc"
       style="fill:#f8c422;fill-opacity:1;stroke:none"
       id="path3865"
       sodipodi:cx="-36.744297"
       sodipodi:cy="67.04377"
       sodipodi:rx="25.127544"
       sodipodi:ry="25.127544"
       d="m -11.616753,67.04377 a 25.127544,25.127544 0 1 1 -50.255088,0 25.127544,25.127544 0 1 1 50.255088,0 z"
       transform="matrix(0.99492412,0,0,0.99492412,-6.3749693,955.60795)" />
    <text
       xml:space="preserve"
       style="font-size:39.78791428000000300px;font-style:normal;font-variant:normal;font-weight:normal;font-stretch:normal;line-height:125%;letter-spacing:0px;word-spacing:0px;fill:#9d822c;fill-opacity:1;stroke:none;font-family:Governor;-inkscape-font-specification:Governor"
       x="-56.820618"
       y="1037.0208"
       id="text3869"
       sodipodi:linespacing="125%"><tspan
         sodipodi:role="line"
         id="tspan3871"
         x="-56.820618"
         y="1037.0208">S</tspan></text>
    <rect
       style="fill:#9d822c;fill-opacity:1;stroke:none"
       id="rect3879"
       width="35.860416"
       height="6.0609155"
       x="-61.086102"
       y="1019.2412" />
    <rect
       style="stroke:none;fill:url(#pattern4685)"
       width="37.872971"
       height="21.700935"
       x="149.99028"
       y="895.10114"
       id="rect4690" />
    <rect
       style="stroke:none;fill:url(#pattern4720)"
       width="50.862698"
       height="28.868017"
       x="143.81731"
       y="946.50934"
       id="rect4723" />
    <path
       sodipodi:type="arc"
       style="fill:none;stroke:#3a3a3a;stroke-width:4.32460737;stroke-linecap:round;stroke-linejoin:round;stroke-miterlimit:4;stroke-opacity:1;stroke-dasharray:none;stroke-dashoffset:0"
       id="path4725-2"
       sodipodi:cx="2.6785715"
       sodipodi:cy="27.857143"
       sodipodi:rx="6.875"
       sodipodi:ry="9.2857141"
       d="m 9.5535715,27.857143 a 6.875,9.2857141 0 1 1 -13.75,0 6.875,9.2857141 0 1 1 13.75,0 z"
       transform="matrix(0.24394029,0,0,0.14929561,44.658888,979.81392)"
       inkscape:export-xdpi="90"
       inkscape:export-ydpi="90" />
    <path
       sodipodi:type="arc"
       style="fill:none;stroke:#3a3a3a;stroke-width:4.32460737;stroke-linecap:round;stroke-linejoin:round;stroke-miterlimit:4;stroke-opacity:1;stroke-dasharray:none;stroke-dashoffset:0"
       id="path4725-2-6"
       sodipodi:cx="2.6785715"
       sodipodi:cy="27.857143"
       sodipodi:rx="6.875"
       sodipodi:ry="9.2857141"
       d="m 9.5535715,27.857143 a 6.875,9.2857141 0 1 1 -13.75,0 6.875,9.2857141 0 1 1 13.75,0 z"
       transform="matrix(0.24394029,0,0,0.14929561,44.614693,977.97727)"
       inkscape:export-xdpi="90"
       inkscape:export-ydpi="90" />
    <path
       sodipodi:type="arc"
       style="fill:none;stroke:#3a3a3a;stroke-width:4.32460737;stroke-linecap:round;stroke-linejoin:round;stroke-miterlimit:4;stroke-opacity:1;stroke-dasharray:none;stroke-dashoffset:0"
       id="path4725-2-6-0"
       sodipodi:cx="2.6785715"
       sodipodi:cy="27.857143"
       sodipodi:rx="6.875"
       sodipodi:ry="9.2857141"
       d="m 9.5535715,27.857143 a 6.875,9.2857141 0 1 1 -13.75,0 6.875,9.2857141 0 1 1 13.75,0 z"
       transform="matrix(0.24394029,0,0,0.14929561,44.922258,975.74511)"
       inkscape:export-xdpi="90"
       inkscape:export-ydpi="90" />
    <path
       sodipodi:type="arc"
       style="fill:none;stroke:#3a3a3a;stroke-width:4.32460737;stroke-linecap:round;stroke-linejoin:round;stroke-miterlimit:4;stroke-opacity:1;stroke-dasharray:none;stroke-dashoffset:0"
       id="path4725-2-6-1"
       sodipodi:cx="2.6785715"
       sodipodi:cy="27.857143"
       sodipodi:rx="6.875"
       sodipodi:ry="9.2857141"
       d="m 9.5535715,27.857143 a 6.875,9.2857141 0 1 1 -13.75,0 6.875,9.2857141 0 1 1 13.75,0 z"
       transform="matrix(-0.24394029,0,0,0.14929561,56.021263,978.13158)"
       inkscape:export-xdpi="90"
       inkscape:export-ydpi="90" />
    <path
       sodipodi:type="arc"
       style="fill:none;stroke:#3a3a3a;stroke-width:4.32460737;stroke-linecap:round;stroke-linejoin:round;stroke-miterlimit:4;stroke-opacity:1;stroke-dasharray:none;stroke-dashoffset:0"
       id="path4725-2-3"
       sodipodi:cx="2.6785715"
       sodipodi:cy="27.857143"
       sodipodi:rx="6.875"
       sodipodi:ry="9.2857141"
       d="m 9.5535715,27.857143 a 6.875,9.2857141 0 1 1 -13.75,0 6.875,9.2857141 0 1 1 13.75,0 z"
       transform="matrix(-0.24394029,0,0,0.14929561,56.070595,980.34897)"
       inkscape:export-xdpi="90"
       inkscape:export-ydpi="90" />
    <g
       id="g3908"
       transform="matrix(0.59285714,0,0,0.59285714,33.094388,375.3342)">
      <path
         style="fill:#000000;fill-opacity:1;stroke:none;filter:url(#filter4822)"
         d="m 53.222309,1049.497 c 0,16.3629 -11.19794,25.3739 -25,25 -15.72397,-0.426 -23.3667998,-11.2046 -23.9350798,-25 -0.63895,-15.511 10.1279598,-25 23.9350798,-25 15.29801,0 25,11.1929 25,25 z"
         id="path3865-4-4"
         inkscape:connector-curvature="0"
         sodipodi:nodetypes="sssss" />
      <path
         transform="matrix(0.99492412,0,0,0.99492412,64.772073,982.80157)"
         style="fill:#183b72;fill-opacity:1;stroke:#ffffff;stroke-width:1.69535244;stroke-miterlimit:4;stroke-opacity:1"
         d="m -11.616753,67.04377 c 0,16.446406 -11.255073,25.503354 -25.127544,25.127544 C -52.548492,91.743173 -60.230307,80.90957 -60.801488,67.04377 -61.4437,51.453645 -50.621857,41.916225 -36.744297,41.916225 c 15.376054,0 25.127544,11.249985 25.127544,25.127545 z"
         id="path3865-4"
         inkscape:connector-curvature="0"
         sodipodi:nodetypes="sssss" />
      <text
         sodipodi:linespacing="125%"
         id="text3869-8"
         y="1064.2145"
         x="15.391343"
         style="font-size:39.78791428000000300px;font-style:normal;font-variant:normal;font-weight:normal;font-stretch:normal;line-height:125%;letter-spacing:0px;word-spacing:0px;fill:#a6b1b6;fill-opacity:1;stroke:none;font-family:Governor;-inkscape-font-specification:Governor"
         xml:space="preserve"><tspan
           y="1064.2145"
           x="15.391343"
           id="tspan3871-8"
           sodipodi:role="line">S</tspan></text>
      <rect
         y="1046.8821"
         x="11.12586"
         height="6.0609155"
         width="35.860416"
         id="rect3879-2"
         style="fill:#a6b1b6;fill-opacity:1;stroke:none" />
    </g>
    <g
       id="g3908-4"
       transform="matrix(0.59285714,0,0,0.59285714,73.094403,457.83538)">
      <g
         style="font-size:39.78791428px;font-style:normal;font-variant:normal;font-weight:normal;font-stretch:normal;line-height:125%;letter-spacing:0px;word-spacing:0px;fill:#1b1f21;fill-opacity:1;stroke:none;font-family:Governor;-inkscape-font-specification:Governor"
         id="text3869-8-8" />
    </g>
    <rect
       style="stroke:none;fill:url(#pattern4737)"
       width="11.900185"
       height="20.966991"
       x="117.23937"
       y="1004.9323"
       id="rect4740" />
    <path
       style="fill:#2c2c2c;fill-opacity:1;stroke:none"
       id="path4746"
       d="m 36.336746,1034.2903 c 0.88869,0.047 1.779358,0.05 2.669088,0.069 2.80649,0.075 5.613834,0.1013 8.421241,0.098 2.173203,-0.017 4.346225,-0.049 6.519476,-0.061 0.544909,0 1.089821,-0.01 1.634742,-0.01 0.454288,-2e-4 0.908254,0.016 1.362587,0.016 0.468551,0 0.937066,-0.01 1.405574,-0.015 0.293316,-0.01 0.586562,0 0.879887,0 0.295229,0 0.590408,-0.01 0.88562,0 0.294513,0 0.588993,0 0.883511,0 0.348536,0 0.697016,0 1.045556,0 0.31318,0 0.62636,0 0.939546,0 0.278063,0 0.556115,-2e-4 0.834167,0 0.2079,0 0.415777,0 0.623672,-2e-4 0.228581,0 0.457156,-2e-4 0.685736,-2e-4 0.123134,10e-4 0.246266,8e-4 0.369402,0 0,0 -1.765932,1.272 -1.765932,1.272 l 0,0 c -0.124531,7e-4 -0.24906,5e-4 -0.373589,0 -0.228391,0 -0.456776,-2e-4 -0.685168,-2e-4 -0.207693,0 -0.415369,0 -0.623067,-2e-4 -0.275698,0 -0.551396,0 -0.827106,0 -0.308913,-10e-5 -0.617818,0 -0.926724,0 -0.352106,-6e-4 -0.704152,0 -1.056255,0 -0.29615,-10e-5 -0.592266,-2e-4 -0.888412,0 -0.290642,0 -0.581242,-0.01 -0.871902,0 -0.29437,0 -0.588673,0.01 -0.883028,0 -0.454518,-0.01 -0.909048,-0.013 -1.363611,-0.015 -0.469392,0 -0.93858,0.019 -1.407908,0.013 -0.506651,-0.012 -1.012317,-0.047 -1.518114,-0.077 -2.062756,-0.1125 -4.127295,-0.1765 -6.193571,-0.1677 -2.897675,0 -5.795232,0.025 -8.692063,0.098 -0.953972,0.02 -1.908651,0.025 -2.861763,0.069 0,0 1.778408,-1.2811 1.778408,-1.2811 z"
       inkscape:connector-curvature="0" />
    <path
       style="fill:#2c2c2c;fill-opacity:1;stroke:none"
       id="path4748"
       d="m 36.552876,1039.2112 c 0.516449,0.023 1.033592,0.028 1.55041,0.037 1.164657,0.028 2.329761,0.019 3.494639,0.022 1.394974,0 2.789926,0.01 4.184886,0.017 1.585272,0 3.170546,2e-4 4.755816,0 1.439568,0 2.879036,-0.014 4.31854,-0.023 0.918438,-0.016 1.836848,-0.021 2.755392,-0.018 1.034361,0.01 2.06873,0.019 3.103076,0 0.557709,-0.01 1.115258,-0.029 1.673085,-0.031 0.288144,-5e-4 0.576252,-0.012 0.864375,-0.01 0.423293,0.013 0.846745,0.012 1.270147,0.01 0.263426,0 0.526844,-0.01 0.790295,-0.011 0.03097,-2e-4 0.06195,-4e-4 0.09292,-6e-4 0,0 -1.720563,1.279 -1.720563,1.279 l 0,0 c -0.03047,-2e-4 -0.06094,-4e-4 -0.09141,-6e-4 -0.253533,0 -0.507031,-0.01 -0.760536,-0.011 -0.429724,-0.01 -0.859479,-0.01 -1.289105,0.01 -0.28218,0 -0.564315,-0.01 -0.846512,-0.01 -0.530098,0 -1.059896,-0.02 -1.589863,-0.031 -1.038772,-0.015 -2.077583,0 -3.116375,0 -0.90273,0 -1.805328,0 -2.707948,-0.018 -1.418628,-0.01 -2.837219,-0.028 -4.255915,-0.023 -1.58911,0 -3.178225,0 -4.767339,0 -1.409803,0.01 -2.819597,0.014 -4.229415,0.017 -1.185022,0 -2.370251,-0.01 -3.555064,0.023 -0.549972,0.01 -1.100201,0.015 -1.649854,0.037 0,0 1.726313,-1.2832 1.726313,-1.2832 z"
       inkscape:connector-curvature="0" />
    <path
       style="fill:#2c2c2c;fill-opacity:1;stroke:none"
       id="path4746-1"
       d="m 36.059301,1043.9259 c 0.88869,0.047 1.779358,0.05 2.669088,0.069 2.80649,0.075 5.613834,0.1013 8.421241,0.098 2.173203,-0.017 4.346225,-0.049 6.519476,-0.061 0.544909,0 1.089821,-0.01 1.634742,-0.01 0.454288,-2e-4 0.908254,0.016 1.362587,0.016 0.468551,0 0.937066,-0.01 1.405574,-0.015 0.293316,-0.01 0.586562,0 0.879887,0 0.295229,0 0.590408,-0.01 0.88562,0 0.294513,0 0.588993,0 0.883511,0 0.348536,0 0.697016,0 1.045556,0 0.31318,0 0.62636,0 0.939546,0 0.278063,0 0.556115,-2e-4 0.834167,0 0.2079,0 0.415777,0 0.623672,-2e-4 0.228581,0 0.457156,-2e-4 0.685736,-2e-4 0.123134,10e-4 0.246266,8e-4 0.369402,0 0,0 -1.765932,1.272 -1.765932,1.272 l 0,0 c -0.124531,7e-4 -0.24906,5e-4 -0.373589,0 -0.228391,0 -0.456776,-2e-4 -0.685168,-2e-4 -0.207693,0 -0.415369,0 -0.623067,-2e-4 -0.275698,0 -0.551396,0 -0.827106,0 -0.308913,-10e-5 -0.617818,0 -0.926724,0 -0.352106,-6e-4 -0.704152,0 -1.056255,0 -0.29615,-10e-5 -0.592266,-2e-4 -0.888412,0 -0.290642,0 -0.581242,-0.01 -0.871902,0 -0.29437,0 -0.588673,0.01 -0.883028,0 -0.454518,-0.01 -0.909048,-0.013 -1.363611,-0.015 -0.469392,0 -0.93858,0.019 -1.407908,0.013 -0.506651,-0.012 -1.012317,-0.047 -1.518114,-0.077 -2.062756,-0.1125 -4.127295,-0.1765 -6.193571,-0.1677 -2.897675,0 -5.795232,0.025 -8.692063,0.098 -0.953972,0.02 -1.908651,0.025 -2.861763,0.069 0,0 1.778408,-1.2811 1.778408,-1.2811 z"
       inkscape:connector-curvature="0" />
    <path
       sodipodi:type="arc"
       style="fill:#2c2c2c;fill-opacity:1;stroke:none"
       id="path4768"
       sodipodi:cx="11.9375"
       sodipodi:cy="66.9375"
       sodipodi:rx="4.9375"
       sodipodi:ry="4.9375"
       d="m 16.875,66.9375 a 4.9375,4.9375 0 1 1 -9.875,0 4.9375,4.9375 0 1 1 9.875,0 z"
       transform="matrix(0.24683544,0,0,0.24683544,43.272152,1020.6834)" />
    <path
       sodipodi:type="arc"
       style="fill:#2c2c2c;fill-opacity:1;stroke:none"
       id="path4768-1"
       sodipodi:cx="11.9375"
       sodipodi:cy="66.9375"
       sodipodi:rx="4.9375"
       sodipodi:ry="4.9375"
       d="m 16.875,66.9375 a 4.9375,4.9375 0 1 1 -9.875,0 4.9375,4.9375 0 1 1 9.875,0 z"
       transform="matrix(0.24683544,0,0,0.24683544,50.772152,1020.7771)" />
    <path
       sodipodi:type="arc"
       style="fill:none;stroke:#3a3a3a;stroke-width:4.32460737;stroke-linecap:round;stroke-linejoin:round;stroke-miterlimit:4;stroke-opacity:1;stroke-dasharray:none;stroke-dashoffset:0"
       id="path4725-2-6-0-8"
       sodipodi:cx="2.6785715"
       sodipodi:cy="27.857143"
       sodipodi:rx="6.875"
       sodipodi:ry="9.2857141"
       d="m 9.5535715,27.857143 a 6.875,9.2857141 0 1 1 -13.75,0 6.875,9.2857141 0 1 1 13.75,0 z"
       transform="matrix(0.24394029,0,0,0.14929561,44.996949,973.75435)"
       inkscape:export-xdpi="90"
       inkscape:export-ydpi="90" />
    <path
       sodipodi:type="arc"
       style="fill:none;stroke:#3a3a3a;stroke-width:4.32460737;stroke-linecap:round;stroke-linejoin:round;stroke-miterlimit:4;stroke-opacity:1;stroke-dasharray:none;stroke-dashoffset:0"
       id="path4725-2-6-0-3"
       sodipodi:cx="2.6785715"
       sodipodi:cy="27.857143"
       sodipodi:rx="6.875"
       sodipodi:ry="9.2857141"
       d="m 9.5535715,27.857143 a 6.875,9.2857141 0 1 1 -13.75,0 6.875,9.2857141 0 1 1 13.75,0 z"
       transform="matrix(-0.24394029,0,0,0.14929561,55.934288,975.76852)"
       inkscape:export-xdpi="90"
       inkscape:export-ydpi="90" />
    <path
       sodipodi:type="arc"
       style="fill:none;stroke:#3a3a3a;stroke-width:4.32460737;stroke-linecap:round;stroke-linejoin:round;stroke-miterlimit:4;stroke-opacity:1;stroke-dasharray:none;stroke-dashoffset:0"
       id="path4725-2-6-0-8-6"
       sodipodi:cx="2.6785715"
       sodipodi:cy="27.857143"
       sodipodi:rx="6.875"
       sodipodi:ry="9.2857141"
       d="m 9.5535715,27.857143 a 6.875,9.2857141 0 1 1 -13.75,0 6.875,9.2857141 0 1 1 13.75,0 z"
       transform="matrix(-0.24394029,0,0,0.14929561,55.888626,973.82195)"
       inkscape:export-xdpi="90"
       inkscape:export-ydpi="90" />
  </g>
</svg>
