<?xml version="1.0" encoding="UTF-8" standalone="no"?>
<!-- Created with Inkscape (http://www.inkscape.org/) -->

<svg
   xmlns:dc="http://purl.org/dc/elements/1.1/"
   xmlns:cc="http://creativecommons.org/ns#"
   xmlns:rdf="http://www.w3.org/1999/02/22-rdf-syntax-ns#"
   xmlns:svg="http://www.w3.org/2000/svg"
   xmlns="http://www.w3.org/2000/svg"
   xmlns:xlink="http://www.w3.org/1999/xlink"
   xmlns:sodipodi="http://sodipodi.sourceforge.net/DTD/sodipodi-0.dtd"
   xmlns:inkscape="http://www.inkscape.org/namespaces/inkscape"
   width="640"
   height="60"
   id="svg5029"
   version="1.1"
   inkscape:version="0.48.4 r9939"
   sodipodi:docname="poc.svg"
   inkscape:export-filename="D:\Programmation\Javascript\7DRTS\0_0_3\assets\gfx\tool_bar.png"
   inkscape:export-xdpi="90"
   inkscape:export-ydpi="90">
  <defs
     id="defs5031">
    <linearGradient
       id="linearGradient5047">
      <stop
         style="stop-color:#e1e1e1;stop-opacity:1;"
         offset="0"
         id="stop5049" />
      <stop
         style="stop-color:#ffffff;stop-opacity:1;"
         offset="1"
         id="stop5051" />
    </linearGradient>
    <linearGradient
       inkscape:collect="always"
       xlink:href="#linearGradient5047"
       id="linearGradient5053"
       x1="97.14286"
       y1="973.79071"
       x2="97.14286"
       y2="1053.7939"
       gradientUnits="userSpaceOnUse"
       gradientTransform="matrix(1,0,0,0.74999999,0,263.09047)" />
    <filter
       inkscape:collect="always"
       id="filter5971"
       color-interpolation-filters="sRGB">
      <feGaussianBlur
         inkscape:collect="always"
         stdDeviation="1.8250022"
         id="feGaussianBlur5973" />
    </filter>
  </defs>
  <sodipodi:namedview
     id="base"
     pagecolor="#ffffff"
     bordercolor="#666666"
     borderopacity="1.0"
     inkscape:pageopacity="0.0"
     inkscape:pageshadow="2"
     inkscape:zoom="3.9933812"
     inkscape:cx="59.681544"
     inkscape:cy="39.885414"
     inkscape:document-units="px"
     inkscape:current-layer="g6273"
     showgrid="false"
     inkscape:window-width="1600"
     inkscape:window-height="837"
     inkscape:window-x="-8"
     inkscape:window-y="-8"
     inkscape:window-maximized="1" />
  <metadata
     id="metadata5034">
    <rdf:RDF>
      <cc:Work
         rdf:about="">
        <dc:format>image/svg+xml</dc:format>
        <dc:type
           rdf:resource="http://purl.org/dc/dcmitype/StillImage" />
        <dc:title></dc:title>
      </cc:Work>
    </rdf:RDF>
  </metadata>
  <g
     inkscape:label="Calque 1"
     inkscape:groupmode="layer"
     id="layer1"
     transform="translate(0,-992.3621)">
    <rect
       style="fill:url(#linearGradient5053);fill-opacity:1;stroke:none"
       id="rect5037"
       width="640"
       height="60"
       x="0"
       y="992.36212" />
    <path
       style="fill:#000000;fill-opacity:1;stroke:none;filter:url(#filter5971)"
       d="m 320.00003,955.98122 c -21.1856,0 -38.48876,15.46763 -39.875,34.99996 l -280.12503,0 0,5.00101 280.09378,0 c 1.25936,17.98671 16.03916,32.51301 34.90625,34.71871 l 0,15.2812 5,0 5,0 0,-15.2812 c 18.8668,-2.2057 33.64648,-16.7324 34.90625,-34.71871 l 280.09375,0 0,-5.00101 -280.09375,0 c -1.38539,-19.5331 -18.72006,-34.99996 -39.90625,-34.99996 z"
       id="rect5055-4"
       inkscape:connector-curvature="0" />
    <rect
       style="fill:#0000ff;fill-opacity:1;stroke:none"
       id="rect5055"
       width="320"
       height="5"
       x="0"
       y="992.36212" />
    <rect
       style="fill:#ff0000;fill-opacity:1;stroke:none"
       id="rect5055-9"
       width="320"
       height="5"
       x="320"
       y="992.36212" />
    <path
       sodipodi:type="arc"
       style="fill:#0000ff;fill-opacity:1;stroke:none"
       id="path5587"
       sodipodi:cx="323.1478"
       sodipodi:cy="-17.580736"
       sodipodi:rx="44.547726"
       sodipodi:ry="44.547726"
       d="m 367.69552,-17.580736 a 44.547726,44.547726 0 1 1 -89.09545,-2e-6 l 44.54773,2e-6 z"
       transform="matrix(0,0.84179382,-0.89791336,0,304.21402,722.83828)"
       sodipodi:start="0"
       sodipodi:end="3.1415927" />
    <path
       sodipodi:type="arc"
       style="fill:#ff0000;fill-opacity:1;stroke:none"
       id="path5587-0"
       sodipodi:cx="323.1478"
       sodipodi:cy="-17.580736"
       sodipodi:rx="44.547726"
       sodipodi:ry="44.547726"
       d="m 367.69552,-17.580736 a 44.547726,44.547726 0 1 1 -89.09545,-2e-6 l 44.54773,2e-6 z"
       transform="matrix(0,0.84179382,0.89791336,0,335.78597,722.83828)"
       sodipodi:start="0"
       sodipodi:end="3.1415927" />
    <rect
       style="fill:#0000ff;fill-opacity:1;stroke:none"
       id="rect5055-0"
       width="30"
       height="5"
       x="1022.3621"
       y="-320"
       transform="matrix(0,1,-1,0,0,0)" />
    <rect
       style="fill:#ff0000;fill-opacity:1;stroke:none"
       id="rect5055-9-1"
       width="30"
       height="5"
       x="1022.3621"
       y="-325"
       transform="matrix(0,1,-1,0,0,0)" />
    <rect
       style="fill:#ffffff;fill-opacity:1;stroke:#000000;stroke-width:1;stroke-linejoin:miter;stroke-miterlimit:4;stroke-opacity:1;stroke-dasharray:none"
       id="rect5643"
       width="39.024391"
       height="39.024391"
       x="140.5"
       y="1004.8377" />
    <rect
       style="fill:#ffffff;fill-opacity:1;stroke:#000000;stroke-width:1;stroke-linejoin:miter;stroke-miterlimit:4;stroke-opacity:1;stroke-dasharray:none"
       id="rect5643-2"
       width="39.024391"
       height="39.024391"
       x="179.5"
       y="1004.8377" />
    <rect
       style="fill:#ffffff;fill-opacity:1;stroke:#000000;stroke-width:1;stroke-linejoin:miter;stroke-miterlimit:4;stroke-opacity:1;stroke-dasharray:none"
       id="rect5643-2-2"
       width="39.024391"
       height="39.024391"
       x="218.5"
       y="1004.8377" />
    <g
       id="g3908"
       transform="matrix(0.59285714,0,0,0.59285714,24.427606,477.85974)"
       inkscape:export-xdpi="90"
       inkscape:export-ydpi="90">
      <path
         style="fill:#183b72;fill-opacity:1;stroke:#000000;stroke-width:1.6383574;stroke-miterlimit:4;stroke-opacity:1;stroke-dasharray:none"
         d="m -11.660924,892.64166 c 0,8.29401 -5.79761,12.86151 -12.943474,12.67192 -8.140913,-0.21583 -12.097903,-5.67938 -12.392125,-12.67192 -0.330809,-7.86223 5.24364,-12.672 12.392125,-12.672 7.920376,0 12.943474,5.67345 12.943474,12.672 z"
         id="path3865-4"
         inkscape:connector-curvature="0"
         sodipodi:nodetypes="sssss" />
      <text
         sodipodi:linespacing="125%"
         id="text3869-8"
         y="909.77142"
         x="-31.363323"
         style="font-size:20.98458672px;font-style:normal;font-variant:normal;font-weight:normal;font-stretch:normal;line-height:125%;letter-spacing:0px;word-spacing:0px;fill:#a6b1b6;fill-opacity:1;stroke:none;font-family:Governor;-inkscape-font-specification:Governor"
         xml:space="preserve"
         transform="scale(1.0106564,0.98945596)"><tspan
           y="909.77142"
           x="-31.363323"
           id="tspan3871-8"
           sodipodi:role="line">S</tspan></text>
      <rect
         y="891.13385"
         x="-33.97118"
         height="3.162889"
         width="19.114727"
         id="rect3879-2"
         style="fill:#a6b1b6;fill-opacity:1;stroke:none" />
    </g>
    <path
       style="fill:#ff0000;fill-opacity:1;stroke:#000000;stroke-width:0.98230594;stroke-linecap:butt;stroke-linejoin:miter;stroke-miterlimit:4;stroke-opacity:1;stroke-dasharray:none"
       d="m 10.068412,1032.5793 c -0.3765974,-0.1811 -2.6403243,-1.6167 -4.4290356,-4.0239 -1.7887138,-2.407 -3.4092336,-5.3059 -3.1130431,-7.454 0.18891,-1.3699 1.2565489,-3.1793 3.1631221,-3.4791 2.3133569,-0.364 4.3126606,2.7482 4.3126606,2.7482 0,0 2.756263,-2.9911 4.659726,-2.8002 1.573542,0.1578 2.646367,1.601 2.80759,2.7212 0.669058,4.648 -7.40102,12.2878 -7.40102,12.2878 z"
       id="path5887"
       inkscape:connector-curvature="0"
       sodipodi:nodetypes="cssscssc" />
    <rect
       style="fill:#000000;fill-opacity:0.78431373;stroke:none"
       id="rect5889"
       width="640"
       height="1"
       x="0"
       y="992.36212" />
    <path
       style="fill:#ff0000;fill-opacity:1;stroke:#000000;stroke-width:0.98199999;stroke-linecap:butt;stroke-linejoin:miter;stroke-miterlimit:4;stroke-opacity:1;stroke-dasharray:none"
       d="m 630.06841,1031.8711 c -0.3766,-0.1811 -2.64032,-1.6167 -4.42903,-4.0239 -1.78872,-2.407 -3.40924,-5.3059 -3.11305,-7.454 0.18891,-1.3699 1.25655,-3.1793 3.16313,-3.4791 2.31335,-0.364 4.31266,2.7482 4.31266,2.7482 0,0 2.75626,-2.9911 4.65972,-2.8002 1.57354,0.1578 2.64637,1.601 2.80759,2.7212 0.66906,4.648 -7.40102,12.2878 -7.40102,12.2878 z"
       id="path5887-7"
       inkscape:connector-curvature="0"
       sodipodi:nodetypes="cssscssc" />
    <g
       id="g6189"
       transform="matrix(0.99622918,0,0,0.99622918,-64.139993,28.187423)">
      <g
         id="g6258">
        <path
           sodipodi:type="arc"
           style="fill:#000000;fill-opacity:1;stroke:#000000;stroke-width:1;stroke-linecap:round;stroke-linejoin:miter;stroke-miterlimit:4;stroke-opacity:1;stroke-dasharray:none;stroke-dashoffset:0"
           id="path5977"
           sodipodi:cx="28.046408"
           sodipodi:cy="69.524033"
           sodipodi:rx="31.55221"
           sodipodi:ry="26.543922"
           d="m 59.598618,69.524033 c 0,14.659803 -14.126406,26.543922 -31.55221,26.543922 -17.425805,0 -31.5522102,-11.884119 -31.5522102,-26.543922 0,-14.659804 14.1264052,-26.543923 31.5522102,-26.543923 17.425804,0 31.55221,11.884119 31.55221,26.543923 z"
           transform="matrix(0.08321115,0,0,0.09665466,72.297523,1006.644)" />
        <path
           style="fill:#000000;fill-opacity:1;stroke:#000000;stroke-width:0.09447189;stroke-linecap:round;stroke-linejoin:miter;stroke-miterlimit:4;stroke-opacity:1;stroke-dashoffset:0"
           d="m 76.7372,1017.9662 c 0.08012,2.3847 -0.926212,2.6187 -2.068754,2.6187 -1.142541,0 -2.228995,-0.4157 -2.068754,-2.6187 0.105039,-1.4441 -1.239462,-2.5111 1.988634,-2.5885 3.026656,-0.073 2.100297,1.1427 2.148874,2.5885 z"
           id="path5977-3"
           inkscape:connector-curvature="0"
           sodipodi:nodetypes="sssss" />
        <path
           style="fill:#000000;fill-opacity:1;stroke:#000000;stroke-width:0.1665068;stroke-linecap:round;stroke-linejoin:miter;stroke-miterlimit:4;stroke-opacity:1;stroke-dashoffset:0"
           d="m 74.286164,1021.8659 c -0.06684,1.1809 -0.783116,1.838 -1.079224,1.8213 -0.296107,-0.017 -0.759966,-1.0034 -0.693122,-2.1842 0.06685,-1.1809 0.733522,-1.6657 1.02963,-1.649 0.296107,0.017 0.80956,0.8311 0.742716,2.0119 z"
           id="path6000"
           inkscape:connector-curvature="0"
           sodipodi:nodetypes="sssss" />
        <path
           style="fill:#000000;fill-opacity:1;stroke:#000000;stroke-width:0.15947436;stroke-linecap:round;stroke-linejoin:miter;stroke-miterlimit:4;stroke-opacity:1;stroke-dashoffset:0"
           d="m 74.257072,1024.7043 c 0,1.0807 -0.680652,1.7172 -0.978399,1.7172 -0.297747,0 -0.818661,-0.8761 -0.818661,-1.9568 0,-1.0807 0.640718,-1.5574 0.938465,-1.5574 0.297747,0 0.858595,0.7163 0.858595,1.797 z"
           id="path6000-9"
           inkscape:connector-curvature="0"
           sodipodi:nodetypes="sssss" />
        <path
           style="fill:#000000;fill-opacity:1;stroke:#000000;stroke-width:0.15947436;stroke-linecap:round;stroke-linejoin:miter;stroke-miterlimit:4;stroke-opacity:1;stroke-dashoffset:0"
           d="m 76.927819,1017.857 c 0.623997,0.8823 1.547225,1.009 1.790325,0.8371 0.2431,-0.1719 0.162559,-1.188 -0.461438,-2.0704 -0.623996,-0.8823 -1.422383,-0.9016 -1.665483,-0.7297 -0.2431,0.1719 -0.2874,1.0806 0.336596,1.963 z"
           id="path6000-95-1"
           inkscape:connector-curvature="0"
           sodipodi:nodetypes="sssss" />
        <path
           style="fill:#000000;fill-opacity:1;stroke:#000000;stroke-width:0.15947436;stroke-linecap:round;stroke-linejoin:miter;stroke-miterlimit:4;stroke-opacity:1;stroke-dashoffset:0"
           d="m 77.545292,1019.749 c 0.04708,1.0797 0.754796,1.6859 1.052266,1.6729 0.297462,-0.013 0.779727,-0.9109 0.732653,-1.9905 -0.04707,-1.0797 -0.707944,-1.5281 -1.005415,-1.5151 -0.297461,0.013 -0.826578,0.753 -0.779504,1.8327 z"
           id="path6000-9-1-1"
           inkscape:connector-curvature="0"
           sodipodi:nodetypes="sssss" />
        <path
           style="fill:#000000;fill-opacity:1;stroke:#000000;stroke-width:0.15947436;stroke-linecap:round;stroke-linejoin:miter;stroke-miterlimit:4;stroke-opacity:1;stroke-dashoffset:0"
           d="m 72.230169,1017.6721 c -0.623996,0.8824 -1.547225,1.0091 -1.790325,0.8372 -0.243099,-0.172 -0.162558,-1.188 0.461438,-2.0704 0.623996,-0.8824 1.422383,-0.9016 1.665484,-0.7297 0.2431,0.1719 0.2874,1.0806 -0.336597,1.9629 z"
           id="path6000-95-1-2"
           inkscape:connector-curvature="0"
           sodipodi:nodetypes="sssss" />
        <path
           style="fill:#000000;fill-opacity:1;stroke:#000000;stroke-width:0.15947436;stroke-linecap:round;stroke-linejoin:miter;stroke-miterlimit:4;stroke-opacity:1;stroke-dashoffset:0"
           d="m 71.333534,1019.7171 c 0.0075,1.0807 -0.668762,1.7218 -0.966509,1.7239 -0.297737,0 -0.824697,-0.8704 -0.832166,-1.9511 -0.0075,-1.0807 0.629937,-1.5618 0.927682,-1.5639 0.297737,0 0.863526,0.7104 0.870993,1.7911 z"
           id="path6000-9-1-1-3"
           inkscape:connector-curvature="0"
           sodipodi:nodetypes="sssss" />
        <path
           style="fill:#000000;fill-opacity:1;stroke:#000000;stroke-width:0.1665068;stroke-linecap:round;stroke-linejoin:miter;stroke-miterlimit:4;stroke-opacity:1;stroke-dashoffset:0"
           d="m 77.020347,1021.5683 c 0.211631,1.1637 -0.330775,1.9704 -0.62257,2.0234 -0.291795,0.053 -0.973858,-0.7974 -1.185492,-1.9611 -0.211633,-1.1636 0.32292,-1.7912 0.614715,-1.8442 0.291795,-0.053 0.981714,0.6183 1.193347,1.7819 z"
           id="path6000-3"
           inkscape:connector-curvature="0"
           sodipodi:nodetypes="sssss" />
        <path
           style="fill:#000000;fill-opacity:1;stroke:#000000;stroke-width:0.15947436;stroke-linecap:round;stroke-linejoin:miter;stroke-miterlimit:4;stroke-opacity:1;stroke-dashoffset:0"
           d="m 77.191644,1024.7028 c 0,1.0807 -0.680653,1.7172 -0.978399,1.7172 -0.297747,0 -0.818661,-0.8761 -0.818661,-1.9568 0,-1.0807 0.640718,-1.5575 0.938465,-1.5575 0.297746,0 0.858595,0.7164 0.858595,1.7971 z"
           id="path6000-9-9"
           inkscape:connector-curvature="0"
           sodipodi:nodetypes="sssss" />
        <path
           style="fill:#000000;fill-opacity:1;stroke:#000000;stroke-width:0.09060771;stroke-linecap:round;stroke-linejoin:miter;stroke-miterlimit:4;stroke-opacity:1;stroke-dashoffset:0"
           d="m 74.701649,1021.2809 c -0.450137,0.051 -0.729514,-0.4453 -0.735757,-0.6753 -0.0062,-0.2301 0.34774,-0.6737 0.797883,-0.7245 0.450137,-0.051 0.662142,0.422 0.668384,0.652 0.0062,0.2301 -0.280373,0.6971 -0.73051,0.7478 z"
           id="path6000-2"
           inkscape:connector-curvature="0"
           sodipodi:nodetypes="sssss" />
        <rect
           style="fill:#000000;fill-opacity:1;stroke:#000000;stroke-width:0.14798345;stroke-linecap:round;stroke-linejoin:miter;stroke-miterlimit:4;stroke-opacity:1;stroke-dasharray:none;stroke-dashoffset:0"
           id="rect6160"
           width="0.76332605"
           height="13.970246"
           x="70.050026"
           y="1012.5206" />
        <path
           style="fill:#000000;fill-opacity:1;stroke:none"
           d="m 70.409803,1015.1102 -0.586691,-1.528 c 0,0 -0.963095,0.1148 -0.172358,-1.3605 0.784585,-1.4638 0.757889,-1.3997 0.757889,-1.3997 l 0.715251,1.3914 c 0,0 0.900477,1.4862 -0.107819,1.3219 -0.08287,0.1767 -0.606272,1.5749 -0.606272,1.5749 z"
           id="path6164"
           inkscape:connector-curvature="0"
           sodipodi:nodetypes="ccscccc" />
      </g>
      <g
         id="g6273"
         transform="translate(0,-0.23507309)">
        <path
           style="fill:#000000;fill-opacity:1;stroke:#000000;stroke-width:0.14733481;stroke-linecap:round;stroke-linejoin:miter;stroke-miterlimit:4;stroke-opacity:1;stroke-dashoffset:0"
           d="m 133.20018,1023.1232 c -0.0476,1.0455 0.52365,1.6887 0.7858,1.7005 0.26216,0.012 0.75942,-0.8147 0.80705,-1.8602 0.0476,-1.0454 -0.49551,-1.5323 -0.75767,-1.5443 -0.26215,-0.012 -0.78754,0.6586 -0.83518,1.704 z"
           id="path6000-3-9-7"
           inkscape:connector-curvature="0"
           sodipodi:nodetypes="sssss" />
        <path
           style="fill:#000000;fill-opacity:1;stroke:#000000;stroke-width:0.1411121;stroke-linecap:round;stroke-linejoin:miter;stroke-miterlimit:4;stroke-opacity:1;stroke-dashoffset:0"
           d="m 133.2781,1025.3994 c 0,0.9563 0.60228,1.5195 0.86575,1.5195 0.26345,0 0.7244,-0.7752 0.7244,-1.7315 0,-0.9563 -0.56695,-1.3782 -0.83042,-1.3782 -0.26345,0 -0.75973,0.6339 -0.75973,1.5902 z"
           id="path6000-9-9-0-6"
           inkscape:connector-curvature="0"
           sodipodi:nodetypes="sssss" />
        <path
           style="fill:#000000;fill-opacity:1;stroke:#000000;stroke-width:0.14733481;stroke-linecap:round;stroke-linejoin:miter;stroke-miterlimit:4;stroke-opacity:1;stroke-dashoffset:0"
           d="m 139.66363,1024.9838 c -0.0476,1.0455 0.52365,1.6886 0.7858,1.7005 0.26216,0.012 0.75943,-0.8147 0.80705,-1.8602 0.0476,-1.0454 -0.49551,-1.5323 -0.75766,-1.5443 -0.26215,-0.012 -0.78754,0.6586 -0.83519,1.704 z"
           id="path6000-3-9-7-6"
           inkscape:connector-curvature="0"
           sodipodi:nodetypes="sssss" />
        <path
           style="fill:#000000;fill-opacity:1;stroke:#000000;stroke-width:0.14733481;stroke-linecap:round;stroke-linejoin:miter;stroke-miterlimit:4;stroke-opacity:1;stroke-dashoffset:0"
           d="m 139.57299,1023.1601 c 0.18743,1.0297 0.88806,1.5288 1.14622,1.4817 0.25808,-0.048 0.55798,-0.964 0.37056,-1.9937 -0.18737,-1.0295 -0.82566,-1.3827 -1.08385,-1.3356 -0.25807,0.047 -0.62029,0.8181 -0.43293,1.8476 z"
           id="path6000-3-9-7-6-3"
           inkscape:connector-curvature="0"
           sodipodi:nodetypes="sssss" />
        <path
           sodipodi:type="arc"
           style="fill:#000000;fill-opacity:1;stroke:none"
           id="path6345"
           sodipodi:cx="11.299948"
           sodipodi:cy="69.70356"
           sodipodi:rx="6.1664538"
           sodipodi:ry="2.3789365"
           d="m 17.466402,69.70356 a 6.1664538,2.3789365 0 1 1 -12.3329081,0 6.1664538,2.3789365 0 1 1 12.3329081,0 z"
           transform="matrix(0.77098169,0,0,0.9349547,128.27277,955.91994)" />
        <rect
           style="fill:#000000;fill-opacity:1;stroke:none"
           id="rect6347"
           width="3.1138768"
           height="2.6134324"
           x="-485.29236"
           y="907.88257"
           transform="matrix(0.81044725,-0.58581162,0.58581162,0.81044725,0,0)" />
        <path
           sodipodi:type="arc"
           style="fill:#000000;fill-opacity:1;stroke:none"
           id="path6349"
           sodipodi:cx="18.155041"
           sodipodi:cy="66.635979"
           sodipodi:rx="2.44154"
           sodipodi:ry="1.7529005"
           d="m 20.596581,66.635979 a 2.44154,1.7529005 0 1 1 -4.88308,0 2.44154,1.7529005 0 1 1 4.88308,0 z"
           transform="matrix(0.88820696,0,0,0.88820696,126.83692,959.67887)" />
        <path
           sodipodi:type="arc"
           style="fill:#000000;fill-opacity:1;stroke:#000000;stroke-width:1;stroke-linecap:round;stroke-linejoin:miter;stroke-miterlimit:4;stroke-opacity:1;stroke-dasharray:none;stroke-dashoffset:0"
           id="path5977-33"
           sodipodi:cx="28.046408"
           sodipodi:cy="69.524033"
           sodipodi:rx="31.55221"
           sodipodi:ry="26.543922"
           d="m 59.598618,69.524033 a 31.55221,26.543922 0 1 1 -63.1044202,0 31.55221,26.543922 0 1 1 63.1044202,0 z"
           transform="matrix(0.07363003,0,0,0.08552562,134.48142,1007.3085)" />
        <path
           style="fill:#000000;fill-opacity:1;stroke:#000000;stroke-width:0.08359417;stroke-linecap:round;stroke-linejoin:miter;stroke-miterlimit:4;stroke-opacity:1;stroke-dashoffset:0"
           d="m 138.40991,1017.327 c 0.0709,2.1101 -0.81957,2.3172 -1.83055,2.3172 -1.01099,0 -1.97235,-0.3678 -1.83056,-2.3172 0.093,-1.2778 -1.09674,-2.2219 1.75967,-2.2904 2.67815,-0.065 1.85845,1.0111 1.90144,2.2904 z"
           id="path5977-3-0"
           inkscape:connector-curvature="0"
           sodipodi:nodetypes="sssss" />
        <path
           style="fill:#000000;fill-opacity:1;stroke:#000000;stroke-width:0.1411121;stroke-linecap:round;stroke-linejoin:miter;stroke-miterlimit:4;stroke-opacity:1;stroke-dashoffset:0"
           d="m 136.91585,1017.8686 c 0.79885,0.5255 1.60039,0.332 1.74521,0.1119 0.14482,-0.2201 -0.24944,-1.0313 -1.0483,-1.5569 -0.79884,-0.5256 -1.46287,-0.2839 -1.60769,-0.064 -0.14483,0.2201 0.11192,0.9831 0.91078,1.5087 z"
           id="path6000-95-1-4"
           inkscape:connector-curvature="0"
           sodipodi:nodetypes="sssss" />
        <path
           style="fill:#000000;fill-opacity:1;stroke:#000000;stroke-width:0.1411121;stroke-linecap:round;stroke-linejoin:miter;stroke-miterlimit:4;stroke-opacity:1;stroke-dashoffset:0"
           d="m 138.69304,1016.756 c -0.9106,0.2921 -1.26294,1.0376 -1.18245,1.2885 0.0804,0.2508 0.95938,0.453 1.86991,0.161 0.9106,-0.2921 1.13917,-0.9608 1.05869,-1.2116 -0.0805,-0.2509 -0.83554,-0.5299 -1.74615,-0.2379 z"
           id="path6000-9-1-1-39"
           inkscape:connector-curvature="0"
           sodipodi:nodetypes="sssss" />
        <path
           style="fill:#000000;fill-opacity:1;stroke:#000000;stroke-width:0.14733481;stroke-linecap:round;stroke-linejoin:miter;stroke-miterlimit:4;stroke-opacity:1;stroke-dashoffset:0"
           d="m 137.57666,1020.2141 c 0.63952,0.8285 0.54132,1.6831 0.33355,1.8434 -0.20772,0.1604 -1.08959,-0.2307 -1.72912,-1.0591 -0.63952,-0.8285 -0.4746,-1.5391 -0.26684,-1.6994 0.20772,-0.1604 1.02294,0.087 1.66241,0.9151 z"
           id="path6000-3-9"
           inkscape:connector-curvature="0"
           sodipodi:nodetypes="sssss" />
        <path
           style="fill:#000000;fill-opacity:1;stroke:#000000;stroke-width:0.1411121;stroke-linecap:round;stroke-linejoin:miter;stroke-miterlimit:4;stroke-opacity:1;stroke-dashoffset:0"
           d="m 137.90342,1023.22 c -0.45019,0.8437 -1.2467,1.057 -1.47911,0.9329 -0.23272,-0.1233 -0.27419,-1.0249 0.176,-1.8685 0.45019,-0.8437 1.14899,-0.949 1.38144,-0.825 0.23238,0.1242 0.37185,0.9169 -0.0783,1.7606 z"
           id="path6000-9-9-0"
           inkscape:connector-curvature="0"
           sodipodi:nodetypes="sssss" />
        <path
           style="fill:#000000;fill-opacity:1;stroke:#000000;stroke-width:0.08017493;stroke-linecap:round;stroke-linejoin:miter;stroke-miterlimit:4;stroke-opacity:1;stroke-dashoffset:0"
           d="m 136.60874,1020.2601 c -0.39831,0.045 -0.64552,-0.3941 -0.65105,-0.5976 -0.005,-0.2036 0.3077,-0.5961 0.70601,-0.6411 0.39831,-0.045 0.58591,0.3734 0.59143,0.577 0.005,0.2036 -0.24809,0.6168 -0.64639,0.6617 z"
           id="path6000-2-5"
           inkscape:connector-curvature="0"
           sodipodi:nodetypes="sssss" />
        <rect
           style="fill:#000000;fill-opacity:1;stroke:none"
           id="rect6387"
           width="2.947062"
           height="0.88967913"
           x="805.0799"
           y="636.27887"
           transform="matrix(0.72123001,0.69269566,-0.69269566,0.72123001,0,0)" />
      </g>
    </g>
  </g>
</svg>
